digraph G {

    compound=true;
    label="CCMarket"

    size="11.7,11.7!";
    rankdir="LR"

    Main[
        label="入口程序"
    ]

    subgraph cluster1{
        label="Markets"

        rankdir=TB
        constraint=false

        node[shape = "record"]

        
        Market1 [
            label = "Market1"
            color=green
            
        ]

        Market2 [
            label = "Market2"
            color=green
            
        ]

        MarketMore [
            label = "Market..."
            color=green
            
        ]
    }

    subgraph cluster2 {
        label="Exchanges"

        Exchange1[
            label="交易所1"

        ]
        Exchange2[
            label="交易所2"
        ]
        ExchangeMore[
            label="交易所..."
        ]
    }

 
    RedisPublish[
        label="发布Redis消息"
    ]


    Main->Market1[
        lhead="cluster1"
        label="启动Markets"
        color="blue"
        
    ] 

    RedisPublish->MarketMore[
    
        lhead="cluster1"
        color = green
        
        label="订阅/推送"
        fontname="Arial"
        fontsize="6"
        dir=back
    ]

    Market1->Exchange1[
        color=green
        dir=back
    ]

    Market2->Exchange2[
        color=green
        dir=back
    ]

    MarketMore->ExchangeMore[
        color=green
        dir=back
    ]
}